…
``` r
birthweight = birthweight %>%
  janitor::clean_names() %>%
  mutate(
    babysex = recode(babysex, `1` = "male", `2` = "female"),
    frace = factor(frace, ordered = FALSE),
    malform = recode(malform, `0` = "absent", `1` = "present"),
    mrace = factor(mrace, ordered = FALSE)
  ) %>%
  relocate(bwt)

birthweight
```

    ## # A tibble: 4,342 × 20
    ##      bwt babysex bhead blength delwt fincome frace gaweeks malform menarche
    ##    <dbl> <chr>   <dbl>   <dbl> <dbl>   <dbl> <fct>   <dbl> <chr>      <dbl>
    ##  1  3629 female     34      51   177      35 1        39.9 absent        13
    ##  2  3062 male       34      48   156      65 2        25.9 absent        14
    ##  3  3345 female     36      50   148      85 1        39.9 absent        12
    ##  4  3062 male       34      52   157      55 1        40   absent        14
    ##  5  3374 female     34      52   156       5 1        41.6 absent        13
    ##  6  3374 male       33      52   129      55 1        40.7 absent        12
    ##  7  2523 female     33      46   126      96 2        40.3 absent        14
    ##  8  2778 female     33      49   140       5 1        37.4 absent        12
    ##  9  3515 male       36      52   146      85 1        40.3 absent        11
    ## 10  3459 male       33      50   169      75 2        40.7 absent        12
    ## # … with 4,332 more rows, and 10 more variables: mheight <dbl>, momage <dbl>,
    ## #   mrace <fct>, parity <dbl>, pnumlbw <dbl>, pnumsga <dbl>, ppbmi <dbl>,
    ## #   ppwt <dbl>, smoken <dbl>, wtgain <dbl>
…
weather_df
```

    ## # A tibble: 365 × 6
    ##    name           id          date        prcp  tmax  tmin
    ##    <chr>          <chr>       <date>     <dbl> <dbl> <dbl>
    ##  1 CentralPark_NY USW00094728 2017-01-01     0   8.9   4.4
    ##  2 CentralPark_NY USW00094728 2017-01-02    53   5     2.8
    ##  3 CentralPark_NY USW00094728 2017-01-03   147   6.1   3.9
    ##  4 CentralPark_NY USW00094728 2017-01-04     0  11.1   1.1
    ##  5 CentralPark_NY USW00094728 2017-01-05     0   1.1  -2.7
    ##  6 CentralPark_NY USW00094728 2017-01-06    13   0.6  -3.8
    ##  7 CentralPark_NY USW00094728 2017-01-07    81  -3.2  -6.6
    ##  8 CentralPark_NY USW00094728 2017-01-08     0  -3.8  -8.8
    ##  9 CentralPark_NY USW00094728 2017-01-09     0  -4.9  -9.9
    ## 10 CentralPark_NY USW00094728 2017-01-10     0   7.8  -6  
    ## # … with 355 more rows
…
